03/24/22 17:35

Problem 1 (10 points):
Score += 10

Problem 2 (10 points):
incorrect upper bound and no lower bound
Score += 4

Problem 3 (15 points):
incomplete
Score += 5

Problem 4 (10 points):
inc
Score += 0

Code Quality (5 points):
Score += 5

Total score: 24/50 = 48.0%

-------------------------------------------------------------------------------

